{
  "page": 1,
  "per_page": 15,
  "photos": [
    {
      "id": 62693,
      "width": 2154,
      "height": 2153,
      "url": "https://www.pexels.com/photo/sunlight-on-floor-62693/",
      "photographer": "OVAN",
      "photographer_url": "https://www.pexels.com/@knownasovan",
      "photographer_id": 11203,
      "avg_color": "#DDE0E2",
      "src": {
        "original": "https://images.pexels.com/photos/62693/pexels-photo-62693.jpeg",
        "large2x": "https://images.pexels.com/photos/62693/pexels-photo-62693.jpeg?auto=compress&cs=tinysrgb&dpr=2&h=650&w=940",
        "large": "https://images.pexels.com/photos/62693/pexels-photo-62693.jpeg?auto=compress&cs=tinysrgb&h=650&w=940",
        "medium": "https://images.pexels.com/photos/62693/pexels-photo-62693.jpeg?auto=compress&cs=tinysrgb&h=350",
        "small": "https://images.pexels.com/photos/62693/pexels-photo-62693.jpeg?auto=compress&cs=tinysrgb&h=130",
        "portrait": "https://images.pexels.com/photos/62693/pexels-photo-62693.jpeg?auto=compress&cs=tinysrgb&fit=crop&h=1200&w=800",
        "landscape": "https://images.pexels.com/photos/62693/pexels-photo-62693.jpeg?auto=compress&cs=tinysrgb&fit=crop&h=627&w=1200",
        "tiny": "https://images.pexels.com/photos/62693/pexels-photo-62693.jpeg?auto=compress&cs=tinysrgb&dpr=1&fit=crop&h=200&w=280"
      },
      "liked": false
    },
    {
      "id": 911738,
      "width": 6016,
      "height": 4016,
      "url": "https://www.pexels.com/photo/white-textile-911738/",
      "photographer": "gdtography",
      "photographer_url": "https://www.pexels.com/@gdtography-277628",
      "photographer_id": 277628,
      "avg_color": "#DFDFDF",
      "src": {
        "original": "https://images.pexels.com/photos/911738/pexels-photo-911738.jpeg",
        "large2x": "https://images.pexels.com/photos/911738/pexels-photo-911738.jpeg?auto=compress&cs=tinysrgb&dpr=2&h=650&w=940",
        "large": "https://images.pexels.com/photos/911738/pexels-photo-911738.jpeg?auto=compress&cs=tinysrgb&h=650&w=940",
        "medium": "https://images.pexels.com/photos/911738/pexels-photo-911738.jpeg?auto=compress&cs=tinysrgb&h=350",
        "small": "https://images.pexels.com/photos/911738/pexels-photo-911738.jpeg?auto=compress&cs=tinysrgb&h=130",
        "portrait": "https://images.pexels.com/photos/911738/pexels-photo-911738.jpeg?auto=compress&cs=tinysrgb&fit=crop&h=1200&w=800",
        "landscape": "https://images.pexels.com/photos/911738/pexels-photo-911738.jpeg?auto=compress&cs=tinysrgb&fit=crop&h=627&w=1200",
        "tiny": "https://images.pexels.com/photos/911738/pexels-photo-911738.jpeg?auto=compress&cs=tinysrgb&dpr=1&fit=crop&h=200&w=280"
      },
      "liked": false
    },
    {
      "id": 4352247,
      "width": 3648,
      "height": 5472,
      "url": "https://www.pexels.com/photo/white-couch-on-wooden-floor-4352247/",
      "photographer": "Maksim Goncharenok",
      "photographer_url": "https://www.pexels.com/@maksgelatin",
      "photographer_id": 2713790,
      "avg_color": "#B5AFA8",
      "src": {
        "original": "https://images.pexels.com/photos/4352247/pexels-photo-4352247.jpeg",
        "large2x": "https://images.pexels.com/photos/4352247/pexels-photo-4352247.jpeg?auto=compress&cs=tinysrgb&dpr=2&h=650&w=940",
        "large": "https://images.pexels.com/photos/4352247/pexels-photo-4352247.jpeg?auto=compress&cs=tinysrgb&h=650&w=940",
        "medium": "https://images.pexels.com/photos/4352247/pexels-photo-4352247.jpeg?auto=compress&cs=tinysrgb&h=350",
        "small": "https://images.pexels.com/photos/4352247/pexels-photo-4352247.jpeg?auto=compress&cs=tinysrgb&h=130",
        "portrait": "https://images.pexels.com/photos/4352247/pexels-photo-4352247.jpeg?auto=compress&cs=tinysrgb&fit=crop&h=1200&w=800",
        "landscape": "https://images.pexels.com/photos/4352247/pexels-photo-4352247.jpeg?auto=compress&cs=tinysrgb&fit=crop&h=627&w=1200",
        "tiny": "https://images.pexels.com/photos/4352247/pexels-photo-4352247.jpeg?auto=compress&cs=tinysrgb&dpr=1&fit=crop&h=200&w=280"
      },
      "liked": false
    },
    {
      "id": 1557183,
      "width": 2000,
      "height": 2500,
      "url": "https://www.pexels.com/photo/white-wooden-window-1557183/",
      "photographer": "Soloman Soh",
      "photographer_url": "https://www.pexels.com/@soloman-soh-674993",
      "photographer_id": 674993,
      "avg_color": "#E0425B",
      "src": {
        "original": "https://images.pexels.com/photos/1557183/pexels-photo-1557183.jpeg",
        "large2x": "https://images.pexels.com/photos/1557183/pexels-photo-1557183.jpeg?auto=compress&cs=tinysrgb&dpr=2&h=650&w=940",
        "large": "https://images.pexels.com/photos/1557183/pexels-photo-1557183.jpeg?auto=compress&cs=tinysrgb&h=650&w=940",
        "medium": "https://images.pexels.com/photos/1557183/pexels-photo-1557183.jpeg?auto=compress&cs=tinysrgb&h=350",
        "small": "https://images.pexels.com/photos/1557183/pexels-photo-1557183.jpeg?auto=compress&cs=tinysrgb&h=130",
        "portrait": "https://images.pexels.com/photos/1557183/pexels-photo-1557183.jpeg?auto=compress&cs=tinysrgb&fit=crop&h=1200&w=800",
        "landscape": "https://images.pexels.com/photos/1557183/pexels-photo-1557183.jpeg?auto=compress&cs=tinysrgb&fit=crop&h=627&w=1200",
        "tiny": "https://images.pexels.com/photos/1557183/pexels-photo-1557183.jpeg?auto=compress&cs=tinysrgb&dpr=1&fit=crop&h=200&w=280"
      },
      "liked": false
    },
    {
      "id": 2363814,
      "width": 2592,
      "height": 3500,
      "url": "https://www.pexels.com/photo/vine-plant-on-white-window-2363814/",
      "photographer": "Jeffrey Czum",
      "photographer_url": "https://www.pexels.com/@jeffrey-czum-254391",
      "photographer_id": 254391,
      "avg_color": "#F1D9BD",
      "src": {
        "original": "https://images.pexels.com/photos/2363814/pexels-photo-2363814.jpeg",
        "large2x": "https://images.pexels.com/photos/2363814/pexels-photo-2363814.jpeg?auto=compress&cs=tinysrgb&dpr=2&h=650&w=940",
        "large": "https://images.pexels.com/photos/2363814/pexels-photo-2363814.jpeg?auto=compress&cs=tinysrgb&h=650&w=940",
        "medium": "https://images.pexels.com/photos/2363814/pexels-photo-2363814.jpeg?auto=compress&cs=tinysrgb&h=350",
        "small": "https://images.pexels.com/photos/2363814/pexels-photo-2363814.jpeg?auto=compress&cs=tinysrgb&h=130",
        "portrait": "https://images.pexels.com/photos/2363814/pexels-photo-2363814.jpeg?auto=compress&cs=tinysrgb&fit=crop&h=1200&w=800",
        "landscape": "https://images.pexels.com/photos/2363814/pexels-photo-2363814.jpeg?auto=compress&cs=tinysrgb&fit=crop&h=627&w=1200",
        "tiny": "https://images.pexels.com/photos/2363814/pexels-photo-2363814.jpeg?auto=compress&cs=tinysrgb&dpr=1&fit=crop&h=200&w=280"
      },
      "liked": false
    },
    {
      "id": 910625,
      "width": 2446,
      "height": 2446,
      "url": "https://www.pexels.com/photo/red-armchair-on-brown-surface-910625/",
      "photographer": "Waldemar Nowak",
      "photographer_url": "https://www.pexels.com/@waldemar-nowak-305041",
      "photographer_id": 305041,
      "avg_color": "#E7F0F3",
      "src": {
        "original": "https://images.pexels.com/photos/910625/pexels-photo-910625.jpeg",
        "large2x": "https://images.pexels.com/photos/910625/pexels-photo-910625.jpeg?auto=compress&cs=tinysrgb&dpr=2&h=650&w=940",
        "large": "https://images.pexels.com/photos/910625/pexels-photo-910625.jpeg?auto=compress&cs=tinysrgb&h=650&w=940",
        "medium": "https://images.pexels.com/photos/910625/pexels-photo-910625.jpeg?auto=compress&cs=tinysrgb&h=350",
        "small": "https://images.pexels.com/photos/910625/pexels-photo-910625.jpeg?auto=compress&cs=tinysrgb&h=130",
        "portrait": "https://images.pexels.com/photos/910625/pexels-photo-910625.jpeg?auto=compress&cs=tinysrgb&fit=crop&h=1200&w=800",
        "landscape": "https://images.pexels.com/photos/910625/pexels-photo-910625.jpeg?auto=compress&cs=tinysrgb&fit=crop&h=627&w=1200",
        "tiny": "https://images.pexels.com/photos/910625/pexels-photo-910625.jpeg?auto=compress&cs=tinysrgb&dpr=1&fit=crop&h=200&w=280"
      },
      "liked": false
    },
    {
      "id": 1394892,
      "width": 2633,
      "height": 3957,
      "url": "https://www.pexels.com/photo/white-dress-1394892/",
      "photographer": "Daria Shevtsova",
      "photographer_url": "https://www.pexels.com/@daria",
      "photographer_id": 220024,
      "avg_color": "#C9C9C8",
      "src": {
        "original": "https://images.pexels.com/photos/1394892/pexels-photo-1394892.jpeg",
        "large2x": "https://images.pexels.com/photos/1394892/pexels-photo-1394892.jpeg?auto=compress&cs=tinysrgb&dpr=2&h=650&w=940",
        "large": "https://images.pexels.com/photos/1394892/pexels-photo-1394892.jpeg?auto=compress&cs=tinysrgb&h=650&w=940",
        "medium": "https://images.pexels.com/photos/1394892/pexels-photo-1394892.jpeg?auto=compress&cs=tinysrgb&h=350",
        "small": "https://images.pexels.com/photos/1394892/pexels-photo-1394892.jpeg?auto=compress&cs=tinysrgb&h=130",
        "portrait": "https://images.pexels.com/photos/1394892/pexels-photo-1394892.jpeg?auto=compress&cs=tinysrgb&fit=crop&h=1200&w=800",
        "landscape": "https://images.pexels.com/photos/1394892/pexels-photo-1394892.jpeg?auto=compress&cs=tinysrgb&fit=crop&h=627&w=1200",
        "tiny": "https://images.pexels.com/photos/1394892/pexels-photo-1394892.jpeg?auto=compress&cs=tinysrgb&dpr=1&fit=crop&h=200&w=280"
      },
      "liked": false
    },
    {
      "id": 380330,
      "width": 3550,
      "height": 2366,
      "url": "https://www.pexels.com/photo/white-concrete-building-380330/",
      "photographer": "ben neale",
      "photographer_url": "https://www.pexels.com/@ben-neale-123878",
      "photographer_id": 123878,
      "avg_color": "#D4D5D5",
      "src": {
        "original": "https://images.pexels.com/photos/380330/pexels-photo-380330.jpeg",
        "large2x": "https://images.pexels.com/photos/380330/pexels-photo-380330.jpeg?auto=compress&cs=tinysrgb&dpr=2&h=650&w=940",
        "large": "https://images.pexels.com/photos/380330/pexels-photo-380330.jpeg?auto=compress&cs=tinysrgb&h=650&w=940",
        "medium": "https://images.pexels.com/photos/380330/pexels-photo-380330.jpeg?auto=compress&cs=tinysrgb&h=350",
        "small": "https://images.pexels.com/photos/380330/pexels-photo-380330.jpeg?auto=compress&cs=tinysrgb&h=130",
        "portrait": "https://images.pexels.com/photos/380330/pexels-photo-380330.jpeg?auto=compress&cs=tinysrgb&fit=crop&h=1200&w=800",
        "landscape": "https://images.pexels.com/photos/380330/pexels-photo-380330.jpeg?auto=compress&cs=tinysrgb&fit=crop&h=627&w=1200",
        "tiny": "https://images.pexels.com/photos/380330/pexels-photo-380330.jpeg?auto=compress&cs=tinysrgb&dpr=1&fit=crop&h=200&w=280"
      },
      "liked": false
    },
    {
      "id": 1699655,
      "width": 3264,
      "height": 4896,
      "url": "https://www.pexels.com/photo/white-wooden-cabinet-1699655/",
      "photographer": "Henry & Co.",
      "photographer_url": "https://www.pexels.com/@hngstrm",
      "photographer_id": 435351,
      "avg_color": "#BFC0C5",
      "src": {
        "original": "https://images.pexels.com/photos/1699655/pexels-photo-1699655.jpeg",
        "large2x": "https://images.pexels.com/photos/1699655/pexels-photo-1699655.jpeg?auto=compress&cs=tinysrgb&dpr=2&h=650&w=940",
        "large": "https://images.pexels.com/photos/1699655/pexels-photo-1699655.jpeg?auto=compress&cs=tinysrgb&h=650&w=940",
        "medium": "https://images.pexels.com/photos/1699655/pexels-photo-1699655.jpeg?auto=compress&cs=tinysrgb&h=350",
        "small": "https://images.pexels.com/photos/1699655/pexels-photo-1699655.jpeg?auto=compress&cs=tinysrgb&h=130",
        "portrait": "https://images.pexels.com/photos/1699655/pexels-photo-1699655.jpeg?auto=compress&cs=tinysrgb&fit=crop&h=1200&w=800",
        "landscape": "https://images.pexels.com/photos/1699655/pexels-photo-1699655.jpeg?auto=compress&cs=tinysrgb&fit=crop&h=627&w=1200",
        "tiny": "https://images.pexels.com/photos/1699655/pexels-photo-1699655.jpeg?auto=compress&cs=tinysrgb&dpr=1&fit=crop&h=200&w=280"
      },
      "liked": false
    },
    {
      "id": 3965534,
      "width": 5287,
      "height": 3529,
      "url": "https://www.pexels.com/photo/white-towel-on-white-wooden-sofa-3965534/",
      "photographer": "Ksenia Chernaya",
      "photographer_url": "https://www.pexels.com/@kseniachernaya",
      "photographer_id": 1005150,
      "avg_color": "#C6C6C3",
      "src": {
        "original": "https://images.pexels.com/photos/3965534/pexels-photo-3965534.jpeg",
        "large2x": "https://images.pexels.com/photos/3965534/pexels-photo-3965534.jpeg?auto=compress&cs=tinysrgb&dpr=2&h=650&w=940",
        "large": "https://images.pexels.com/photos/3965534/pexels-photo-3965534.jpeg?auto=compress&cs=tinysrgb&h=650&w=940",
        "medium": "https://images.pexels.com/photos/3965534/pexels-photo-3965534.jpeg?auto=compress&cs=tinysrgb&h=350",
        "small": "https://images.pexels.com/photos/3965534/pexels-photo-3965534.jpeg?auto=compress&cs=tinysrgb&h=130",
        "portrait": "https://images.pexels.com/photos/3965534/pexels-photo-3965534.jpeg?auto=compress&cs=tinysrgb&fit=crop&h=1200&w=800",
        "landscape": "https://images.pexels.com/photos/3965534/pexels-photo-3965534.jpeg?auto=compress&cs=tinysrgb&fit=crop&h=627&w=1200",
        "tiny": "https://images.pexels.com/photos/3965534/pexels-photo-3965534.jpeg?auto=compress&cs=tinysrgb&dpr=1&fit=crop&h=200&w=280"
      },
      "liked": false
    },
    {
      "id": 3685207,
      "width": 4160,
      "height": 6240,
      "url": "https://www.pexels.com/photo/white-concrete-spiral-staircase-3685207/",
      "photographer": "Mitchell Luo",
      "photographer_url": "https://www.pexels.com/@mitchel3uo",
      "photographer_id": 2017002,
      "avg_color": "#AAABB4",
      "src": {
        "original": "https://images.pexels.com/photos/3685207/pexels-photo-3685207.jpeg",
        "large2x": "https://images.pexels.com/photos/3685207/pexels-photo-3685207.jpeg?auto=compress&cs=tinysrgb&dpr=2&h=650&w=940",
        "large": "https://images.pexels.com/photos/3685207/pexels-photo-3685207.jpeg?auto=compress&cs=tinysrgb&h=650&w=940",
        "medium": "https://images.pexels.com/photos/3685207/pexels-photo-3685207.jpeg?auto=compress&cs=tinysrgb&h=350",
        "small": "https://images.pexels.com/photos/3685207/pexels-photo-3685207.jpeg?auto=compress&cs=tinysrgb&h=130",
        "portrait": "https://images.pexels.com/photos/3685207/pexels-photo-3685207.jpeg?auto=compress&cs=tinysrgb&fit=crop&h=1200&w=800",
        "landscape": "https://images.pexels.com/photos/3685207/pexels-photo-3685207.jpeg?auto=compress&cs=tinysrgb&fit=crop&h=627&w=1200",
        "tiny": "https://images.pexels.com/photos/3685207/pexels-photo-3685207.jpeg?auto=compress&cs=tinysrgb&dpr=1&fit=crop&h=200&w=280"
      },
      "liked": false
    },
    {
      "id": 2742725,
      "width": 3456,
      "height": 5184,
      "url": "https://www.pexels.com/photo/cactus-plant-2742725/",
      "photographer": "Diana",
      "photographer_url": "https://www.pexels.com/@dlirac",
      "photographer_id": 382630,
      "avg_color": "#956C57",
      "src": {
        "original": "https://images.pexels.com/photos/2742725/pexels-photo-2742725.jpeg",
        "large2x": "https://images.pexels.com/photos/2742725/pexels-photo-2742725.jpeg?auto=compress&cs=tinysrgb&dpr=2&h=650&w=940",
        "large": "https://images.pexels.com/photos/2742725/pexels-photo-2742725.jpeg?auto=compress&cs=tinysrgb&h=650&w=940",
        "medium": "https://images.pexels.com/photos/2742725/pexels-photo-2742725.jpeg?auto=compress&cs=tinysrgb&h=350",
        "small": "https://images.pexels.com/photos/2742725/pexels-photo-2742725.jpeg?auto=compress&cs=tinysrgb&h=130",
        "portrait": "https://images.pexels.com/photos/2742725/pexels-photo-2742725.jpeg?auto=compress&cs=tinysrgb&fit=crop&h=1200&w=800",
        "landscape": "https://images.pexels.com/photos/2742725/pexels-photo-2742725.jpeg?auto=compress&cs=tinysrgb&fit=crop&h=627&w=1200",
        "tiny": "https://images.pexels.com/photos/2742725/pexels-photo-2742725.jpeg?auto=compress&cs=tinysrgb&dpr=1&fit=crop&h=200&w=280"
      },
      "liked": false
    },
    {
      "id": 2078271,
      "width": 4000,
      "height": 6000,
      "url": "https://www.pexels.com/photo/white-structure-2078271/",
      "photographer": "Martin  Péchy",
      "photographer_url": "https://www.pexels.com/@martinpechy",
      "photographer_id": 87367,
      "avg_color": "#D7D7D6",
      "src": {
        "original": "https://images.pexels.com/photos/2078271/pexels-photo-2078271.jpeg",
        "large2x": "https://images.pexels.com/photos/2078271/pexels-photo-2078271.jpeg?auto=compress&cs=tinysrgb&dpr=2&h=650&w=940",
        "large": "https://images.pexels.com/photos/2078271/pexels-photo-2078271.jpeg?auto=compress&cs=tinysrgb&h=650&w=940",
        "medium": "https://images.pexels.com/photos/2078271/pexels-photo-2078271.jpeg?auto=compress&cs=tinysrgb&h=350",
        "small": "https://images.pexels.com/photos/2078271/pexels-photo-2078271.jpeg?auto=compress&cs=tinysrgb&h=130",
        "portrait": "https://images.pexels.com/photos/2078271/pexels-photo-2078271.jpeg?auto=compress&cs=tinysrgb&fit=crop&h=1200&w=800",
        "landscape": "https://images.pexels.com/photos/2078271/pexels-photo-2078271.jpeg?auto=compress&cs=tinysrgb&fit=crop&h=627&w=1200",
        "tiny": "https://images.pexels.com/photos/2078271/pexels-photo-2078271.jpeg?auto=compress&cs=tinysrgb&dpr=1&fit=crop&h=200&w=280"
      },
      "liked": false
    },
    {
      "id": 6809021,
      "width": 4000,
      "height": 6000,
      "url": "https://www.pexels.com/photo/woman-in-white-clothes-standing-with-vase-6809021/",
      "photographer": "Philip Warp",
      "photographer_url": "https://www.pexels.com/@philipwarp",
      "photographer_id": 3604502,
      "avg_color": "#DFDCD8",
      "src": {
        "original": "https://images.pexels.com/photos/6809021/pexels-photo-6809021.jpeg",
        "large2x": "https://images.pexels.com/photos/6809021/pexels-photo-6809021.jpeg?auto=compress&cs=tinysrgb&dpr=2&h=650&w=940",
        "large": "https://images.pexels.com/photos/6809021/pexels-photo-6809021.jpeg?auto=compress&cs=tinysrgb&h=650&w=940",
        "medium": "https://images.pexels.com/photos/6809021/pexels-photo-6809021.jpeg?auto=compress&cs=tinysrgb&h=350",
        "small": "https://images.pexels.com/photos/6809021/pexels-photo-6809021.jpeg?auto=compress&cs=tinysrgb&h=130",
        "portrait": "https://images.pexels.com/photos/6809021/pexels-photo-6809021.jpeg?auto=compress&cs=tinysrgb&fit=crop&h=1200&w=800",
        "landscape": "https://images.pexels.com/photos/6809021/pexels-photo-6809021.jpeg?auto=compress&cs=tinysrgb&fit=crop&h=627&w=1200",
        "tiny": "https://images.pexels.com/photos/6809021/pexels-photo-6809021.jpeg?auto=compress&cs=tinysrgb&dpr=1&fit=crop&h=200&w=280"
      },
      "liked": false
    },
    {
      "id": 8408549,
      "width": 3787,
      "height": 2524,
      "url": "https://www.pexels.com/photo/green-plant-beside-white-wall-8408549/",
      "photographer": "Sarah Dorweiler",
      "photographer_url": "https://www.pexels.com/@sarahdorweiler",
      "photographer_id": 165286,
      "avg_color": "#CBD0CA",
      "src": {
        "original": "https://images.pexels.com/photos/8408549/pexels-photo-8408549.jpeg",
        "large2x": "https://images.pexels.com/photos/8408549/pexels-photo-8408549.jpeg?auto=compress&cs=tinysrgb&dpr=2&h=650&w=940",
        "large": "https://images.pexels.com/photos/8408549/pexels-photo-8408549.jpeg?auto=compress&cs=tinysrgb&h=650&w=940",
        "medium": "https://images.pexels.com/photos/8408549/pexels-photo-8408549.jpeg?auto=compress&cs=tinysrgb&h=350",
        "small": "https://images.pexels.com/photos/8408549/pexels-photo-8408549.jpeg?auto=compress&cs=tinysrgb&h=130",
        "portrait": "https://images.pexels.com/photos/8408549/pexels-photo-8408549.jpeg?auto=compress&cs=tinysrgb&fit=crop&h=1200&w=800",
        "landscape": "https://images.pexels.com/photos/8408549/pexels-photo-8408549.jpeg?auto=compress&cs=tinysrgb&fit=crop&h=627&w=1200",
        "tiny": "https://images.pexels.com/photos/8408549/pexels-photo-8408549.jpeg?auto=compress&cs=tinysrgb&dpr=1&fit=crop&h=200&w=280"
      },
      "liked": false
    }
  ],
  "total_results": 8000,
  "next_page": "https://api.pexels.com/v1/search/?orientation=landscape%23&page=2&per_page=15&query=minimalism"
}
